Overview of functionr functions • fonctionr
…
#> 51   0.6 1417.2950 1366.3664 1612.4157      Permanently disabled
#> 52   0.7 1638.2628 1512.2517 1717.6611      Permanently disabled
#> 53   0.8 1787.7667 1706.3407 1997.8192      Permanently disabled
#> 54   0.9 2145.5589 2013.8494 3020.2917      Permanently disabled
#> 55   0.1  601.7884  543.4733  669.4258 Fulfilling domestic tasks
#> 56   0.2  819.6067  787.5375  843.5940 Fulfilling domestic tasks
#> 57   0.3  967.5504  926.2958  992.0730 Fulfilling domestic tasks
#> 58   0.4 1087.6650 1052.3764 1121.9686 Fulfilling domestic tasks
#> 59   0.5 1205.2489 1175.6922 1239.6729 Fulfilling domestic tasks
#> 60   0.6 1324.7663 1278.8514 1382.2983 Fulfilling domestic tasks
#> 61   0.7 1494.4608 1459.8000 1545.2556 Fulfilling domestic tasks
#> 62   0.8 1732.0483 1659.9027 1793.4400 Fulfilling domestic tasks
#> 63   0.9 2138.9714 2019.5454 2213.0235 Fulfilling domestic tasks
distrib_income$moustache
#> # A tibble: 21 × 4
#>    group             moustache_prob xbegin  xend
#>    <chr>             <chr>           <dbl> <dbl>
#>  1 Working part time 0.95             436. 3496.
#>  2 Working part time 0.8              774. 2517.
#>  3 Working part time 0.5             1113. 1974.
#>  4 Working full time 0.95             734. 4019.
#>  5 Working full time 0.8             1008. 2909.
#>  6 Working full time 0.5             1315. 2241.
#>  7 Unemployed        0.95             312. 3476.
#>  8 Unemployed        0.8              606. 2404.
#>  9 Unemployed        0.5              916. 1826.
#> 10 Student           0.95             264. 3496.
#> # ℹ 11 more rows
…
