…
``` r
eusilc_dist_group_d$tab
#> # A tibble: 28 × 9
#>    pb220a pl030_rec    prop prop_low prop_upp n_sample n_weighted n_weighted_low
#>    <fct>  <fct>       <dbl>    <dbl>    <dbl>    <int>      <dbl>          <dbl>
#>  1 AT     Fulfillin… 0.0890  0.0838    0.0944     1036    548489.        516023.
#>  2 AT     Permanent… 0.0119  0.00986   0.0142      125     73270.         60135.
#>  3 AT     Retired    0.285   0.276     0.293      3055   1754654.       1698342.
#>  4 AT     Student    0.0602  0.0559    0.0648      693    371222.        343916.
#>  5 AT     Unemployed 0.0388  0.0351    0.0427      411    238841.        215672.
#>  6 AT     Working f… 0.421   0.412     0.431      4689   2595137.       2532480.
#>  7 AT     Working p… 0.0942  0.0888    0.0998     1064    580514.        546451.
#>  8 EU     Fulfillin… 0.124   0.0887    0.166        38     20343.         13851.
#>  9 EU     Permanent… 0.0498  0.0280    0.0811       15      8186.          4019.
#> 10 EU     Retired    0.155   0.115     0.202        45     25429.         17928.
#> # ℹ 18 more rows
#> # ℹ 1 more variable: n_weighted_upp <dbl>
```
…
