…
# Results in graph form
eusilc_dist_d$graph
#> Warning: Removed 21 rows containing missing values or values outside the scale range
#> (`geom_bar()`).
#> Warning: Removed 22 rows containing missing values or values outside the scale range
#> (`geom_text()`).
#> Warning: Removed 8 rows containing missing values or values outside the scale range
#> (`geom_text()`).


# Results in table format
eusilc_dist_d$tab
#> # A tibble: 28 × 9
#>    pb220a pl030_rec    prop prop_low prop_upp n_sample n_weighted n_weighted_low
#>    <fct>  <fct>       <dbl>    <dbl>    <dbl>    <int>      <dbl>          <dbl>
#>  1 AT     Fulfillin… 0.0890  0.0840    0.0942     1036    548489.        516433.
#>  2 AT     Permanent… 0.0119  0.00931   0.0150      125     73270.         56226.
#>  3 AT     Retired    0.285   0.275     0.295      3055   1754654.       1694827.
#>  4 AT     Student    0.0602  0.0558    0.0650      693    371222.        341944.
#>  5 AT     Unemployed 0.0388  0.0351    0.0427      411    238841.        215788.
#>  6 AT     Working f… 0.421   0.412     0.431      4689   2595137.       2526927.
#>  7 AT     Working p… 0.0942  0.0889    0.0998     1064    580514.        546750.
#>  8 EU     Fulfillin… 0.124   0.0886    0.167        38     20343.         13863.
#>  9 EU     Permanent… 0.0498  0.0280    0.0810       15      8186.          4024.
#> 10 EU     Retired    0.155   0.115     0.202        45     25429.         17953.
#> # ℹ 18 more rows
#> # ℹ 1 more variable: n_weighted_upp <dbl>
```
